20

3
John Doe
Jane Smith
Sirhan Sirhan
1 2 3
2 1 3
2 3 1
1 2 3
3 1 2

2
Donald Trump
Joe Biden
1 2
1 2
2 1
2 1

2
Petar Iliev
Andrew Yao
2 1
2 1
1 2
1 2
2 1

3
Lionel Messi
Cristiano Ronaldo
Kylian Mbappe
1 2 3
2 1 3
3 1 2
3 1 2
1 3 2

1
Vladimir Putin
1
1
1
1

2
Emanuel Macron
Marine Le Pen
1 2
1 2
1 2
1 2
1 2
1 2
1 2
1 2
1 2
1 2
1 2
1 2
1 2
1 2
1 2
1 2
1 2
1 2
1 2
1 2
1 2
1 2
1 2
1 2
1 2
1 2
1 2
1 2
1 2
1 2
2 1
2 1

13
zUULIwD
iUfSDF
GL
q
XnEBkk
oOkJ bhf
KMMueGPg
yo IhM
BAowANl
oykNgW
rGhfNppHXP
mx
NYzgwkAqwR
1 2 3 4 5 6 7 8 9 10 11 12 13
2 3 4 5 1 7 8 9 6 11 12 10 13

6
Giorgia Meloni
Enrico Letta
Matteo Salvini
Giuseppe Conte
Silvio Berlusconi
Carlo Calenda
1 2 3 4 5 6
6 5 3 2 1 4
1 3 4 5 2 6
6 4 2 3 1 5
5 6 3 2 1 4
3 1 2 4 5 6
1 2 3 4 5 6
6 5 3 2 1 4
1 3 4 5 2 6
6 4 2 3 1 5
5 6 3 2 1 4
3 1 2 4 5 6
1 2 3 4 5 6
6 5 3 2 1 4
1 3 4 5 2 6
6 4 2 3 1 5
5 6 3 2 1 4
3 1 2 4 5 6

4
Boris Johnson
Nicola Sturgeon
Jeremy Corbyn
Jo Swinson
2 3 4 1
4 3 2 1
1 2 3 4
3 4 2 1

6
Olaf Scholz
Armin Laschet
Annalena Baerbock
Christian Lindner
Alice Weidel
Janine Wissler
1 2 3 4 5 6
6 5 3 4 2 1
6 5 2 3 1 4
5 6 4 2 1 3
3 1 2 4 5 6
1 2 3 4 5 6
6 5 3 4 2 1
6 5 2 3 1 4
5 6 4 2 1 3
3 1 2 4 5 6
1 2 3 4 5 6
6 5 3 4 2 1
6 5 2 3 1 4
5 6 4 2 1 3
3 1 2 4 5 6
1 2 3 4 5 6
6 5 3 4 2 1
6 5 2 3 1 4
5 6 4 2 1 3
3 1 2 4 5 6
1 2 3 4 5 6
6 5 3 4 2 1
6 5 2 3 1 4
5 6 4 2 1 3
3 1 2 4 5 6
1 2 3 4 5 6
6 5 3 4 2 1
6 5 2 3 1 4
5 6 4 2 1 3
3 1 2 4 5 6
1 2 3 4 5 6
6 5 3 4 2 1
6 5 2 3 1 4
5 6 4 2 1 3
3 1 2 4 5 6
1 2 3 4 5 6
6 5 3 4 2 1
6 5 2 3 1 4
5 6 4 2 1 3
3 1 2 4 5 6
1 2 3 4 5 6
6 5 3 4 2 1
6 5 2 3 1 4
5 6 4 2 1 3
3 1 2 4 5 6
1 2 3 4 5 6

3
LeBron James
Michael Jordan
Steph Curry
1 2 3
3 2 1
1 2 3
1 2 3
2 3 1
3 2 1
1 3 2

3
Pedro Sanchez
Alberto Nunez Feijo
Santiago Abascal
2 1 3
3 2 1
3 1 2
1 2 3
1 2 3

2
Barack Obama
Mitt Romney
1 2
1 2
1 2
2 1
2 1
2 1
1 2
2 1

6
Candidate 1
Candidate 2
Candidate 3
Candidate 4
Candidate 5
Candidate 6
4 5 1 2 6 3
2 6 4 5 1 3
5 1 6 3 4 2
1 5 3 2 4 6
1 5 3 2 4 6

2
Candidate 1
Candidate 2
1 2

2
Candiate 5
Cnadidate 6
1 2
1 2
1 2

3
Candiate 7
Cnadidate 8
Candidate 9
2 1 3
2 1 3
2 3 1

5
Bill Gates
Elon Musk
Larry Page
Tim Cook
Jeff Bezos
1 2 3 4 5
2 3 4 1 5
2 3 1 4 5
1 2 3 4 5

3
Candiate 1
Cnadidate 2
Candidate 3
3 1 2
2 1 3
1 2 3

3
Kanye West
Travis Scott
Drake
1 2 3
3 2 1
2 3 1
2 3 1
1 2 3
3 2 1
1 3 2
3 2 1
1 2 3
3 2 1
